<svg width="53" height="42" viewBox="0 0 53 42" fill="none" 
    xmlns="http://www.w3.org/2000/svg">
    <g clip-path="url(#clip0)">
        <path d="M50.4547 41.999H2.54438C1.86948 41.9988 1.22226 41.7409 0.744846 41.2821C0.267431 40.8232 -0.00116011 40.2009 -0.00195312 39.5517V5.24593C-0.00116149 4.597 0.267123 3.97486 0.744079 3.51591C1.22103 3.05696 1.86773 2.79865 2.54238 2.79764H50.4547C51.1294 2.79865 51.7761 3.05696 52.253 3.51591C52.73 3.97486 52.9983 4.597 52.9991 5.24593V39.5517C52.9983 40.2006 52.7299 40.8226 52.253 41.2814C51.776 41.7402 51.1293 41.9983 50.4547 41.999ZM2.54438 4.14127C2.2397 4.14127 1.94749 4.25762 1.73195 4.46476C1.51642 4.67189 1.3952 4.95287 1.39494 5.24593V39.5517C1.3952 39.8444 1.51618 40.1249 1.73131 40.3319C1.94644 40.5388 2.23814 40.6552 2.54238 40.6554H50.4547C50.759 40.6552 51.0507 40.5388 51.2658 40.3319C51.4809 40.1249 51.6019 39.8444 51.6022 39.5517V5.24593C51.6019 4.9532 51.4809 4.67252 51.2658 4.46544C51.0507 4.25835 50.759 4.14178 50.4547 4.14127H2.54438Z" fill="#26DBE7"/>
        <path d="M30.8154 30.2778C29.0017 30.278 27.2288 29.7609 25.7207 28.7918C24.2127 27.8228 23.0372 26.4454 22.3431 24.8337C21.6489 23.2221 21.4672 21.4487 21.8208 19.7377C22.1745 18.0267 23.0478 16.4551 24.3301 15.2215C25.6125 13.9879 27.2463 13.1478 29.0251 12.8074C30.8039 12.467 32.6476 12.6416 34.3232 13.3091C35.9988 13.9766 37.4309 15.1071 38.4385 16.5576C39.4461 18.008 39.9839 19.7133 39.9839 21.4578C39.9813 23.7961 39.0145 26.0378 37.2957 27.6913C35.5768 29.3448 33.2463 30.275 30.8154 30.2778ZM30.8154 13.5985C29.199 13.5983 27.619 14.0592 26.275 14.9228C24.931 15.7864 23.8834 17.014 23.2648 18.4503C22.6462 19.8866 22.4842 21.4672 22.7995 22.992C23.1148 24.5168 23.8931 25.9175 25.036 27.0168C26.1789 28.1161 27.6351 28.8648 29.2204 29.168C30.8056 29.4713 32.4488 29.3155 33.942 28.7205C35.4353 28.1255 36.7115 27.1178 37.6094 25.8251C38.5072 24.5323 38.9864 23.0125 38.9862 21.4578C38.9833 19.3742 38.1215 17.3768 36.5898 15.9035C35.0581 14.4302 32.9815 13.6013 30.8154 13.5985Z" fill="#26DBE7"/>
        <path d="M30.8153 34.4622C23.3609 34.4622 17.2954 28.6289 17.2954 21.4578C17.2954 14.2866 23.3609 8.45432 30.8153 8.45432C38.2697 8.45432 44.3342 14.2876 44.3342 21.4578C44.3342 28.628 38.2697 34.4622 30.8153 34.4622ZM30.8153 9.41309C28.3386 9.4129 25.9175 10.1192 23.8581 11.4425C21.7987 12.7659 20.1936 14.647 19.2457 16.8478C18.2977 19.0487 18.0496 21.4705 18.5327 23.807C19.0157 26.1435 20.2083 28.2898 21.9595 29.9743C23.7107 31.6589 25.9419 32.8062 28.371 33.271C30.8001 33.7358 33.3179 33.4973 35.6061 32.5857C37.8943 31.6741 39.85 30.1303 41.226 28.1496C42.602 26.1688 43.3364 23.84 43.3364 21.4578C43.3325 18.2648 42.012 15.2036 39.6647 12.9458C37.3174 10.688 34.1349 9.41786 30.8153 9.41405V9.41309Z" fill="#26DBE7"/>
        <path d="M13.942 24.622C15.2182 24.622 16.2528 23.6269 16.2528 22.3993C16.2528 21.1717 15.2182 20.1765 13.942 20.1765C12.6657 20.1765 11.6311 21.1717 11.6311 22.3993C11.6311 23.6269 12.6657 24.622 13.942 24.622Z" fill="#26DBE7"/>
        <path d="M48.987 7.17786H42.6561C42.4764 7.17786 42.3308 7.31794 42.3308 7.49073V9.868C42.3308 10.0408 42.4764 10.1809 42.6561 10.1809H48.987C49.1666 10.1809 49.3123 10.0408 49.3123 9.868V7.49073C49.3123 7.31794 49.1666 7.17786 48.987 7.17786Z" fill="#26DBE7"/>
        <path d="M14.815 0.642059H13.48V3.4704H14.815V0.642059Z" fill="#26DBE7"/>
        <path d="M22.4998 0.642059H21.1648V3.4704H22.4998V0.642059Z" fill="#26DBE7"/>
        <path d="M12.6838 -1.9908e-05V1.53076L23.2962 1.53076V-1.9908e-05L12.6838 -1.9908e-05Z" fill="#26DBE7"/>
        <path d="M5.24344 0.642059H4.48413V3.4704H5.24344V0.642059Z" fill="#26DBE7"/>
        <path d="M9.61258 0.642059H8.85327V3.4704H9.61258V0.642059Z" fill="#26DBE7"/>
        <path d="M3.76758 1.06096e-05V1.53079L10.327 1.53079V1.06096e-05L3.76758 1.06096e-05Z" fill="#26DBE7"/>
        <path d="M2.87861 13.9335C3.34646 13.9335 3.72572 13.5687 3.72572 13.1186C3.72572 12.6686 3.34646 12.3038 2.87861 12.3038C2.41076 12.3038 2.03149 12.6686 2.03149 13.1186C2.03149 13.5687 2.41076 13.9335 2.87861 13.9335Z" fill="#26DBE7"/>
        <path d="M6.03461 13.8365C6.50246 13.8365 6.88173 13.4717 6.88173 13.0217C6.88173 12.5717 6.50246 12.2069 6.03461 12.2069C5.56677 12.2069 5.1875 12.5717 5.1875 13.0217C5.1875 13.4717 5.56677 13.8365 6.03461 13.8365Z" fill="#26DBE7"/>
        <path d="M9.21748 13.9335C9.68532 13.9335 10.0646 13.5687 10.0646 13.1186C10.0646 12.6686 9.68532 12.3038 9.21748 12.3038C8.74963 12.3038 8.37036 12.6686 8.37036 13.1186C8.37036 13.5687 8.74963 13.9335 9.21748 13.9335Z" fill="#26DBE7"/>
        <path d="M12.3735 13.8365C12.8413 13.8365 13.2206 13.4717 13.2206 13.0217C13.2206 12.5717 12.8413 12.2069 12.3735 12.2069C11.9056 12.2069 11.5264 12.5717 11.5264 13.0217C11.5264 13.4717 11.9056 13.8365 12.3735 13.8365Z" fill="#26DBE7"/>
        <path d="M15.5573 13.9335C16.0252 13.9335 16.4044 13.5687 16.4044 13.1186C16.4044 12.6686 16.0252 12.3038 15.5573 12.3038C15.0895 12.3038 14.7102 12.6686 14.7102 13.1186C14.7102 13.5687 15.0895 13.9335 15.5573 13.9335Z" fill="#26DBE7"/>
        <path d="M18.8132 13.9335C19.281 13.9335 19.6603 13.5687 19.6603 13.1186C19.6603 12.6686 19.281 12.3038 18.8132 12.3038C18.3453 12.3038 17.9661 12.6686 17.9661 13.1186C17.9661 13.5687 18.3453 13.9335 18.8132 13.9335Z" fill="#26DBE7"/>
        <path d="M42.7917 13.9335C43.2595 13.9335 43.6388 13.5687 43.6388 13.1186C43.6388 12.6686 43.2595 12.3038 42.7917 12.3038C42.3238 12.3038 41.9446 12.6686 41.9446 13.1186C41.9446 13.5687 42.3238 13.9335 42.7917 13.9335Z" fill="#26DBE7"/>
        <path d="M45.9755 13.9335C46.4434 13.9335 46.8226 13.5687 46.8226 13.1186C46.8226 12.6686 46.4434 12.3038 45.9755 12.3038C45.5077 12.3038 45.1284 12.6686 45.1284 13.1186C45.1284 13.5687 45.5077 13.9335 45.9755 13.9335Z" fill="#26DBE7"/>
        <path d="M49.1586 13.9335C49.6265 13.9335 50.0058 13.5687 50.0058 13.1186C50.0058 12.6686 49.6265 12.3038 49.1586 12.3038C48.6908 12.3038 48.3115 12.6686 48.3115 13.1186C48.3115 13.5687 48.6908 13.9335 49.1586 13.9335Z" fill="#26DBE7"/>
        <path d="M2.61323 38.0709C3.08108 38.0709 3.46034 37.706 3.46034 37.256C3.46034 36.806 3.08108 36.4412 2.61323 36.4412C2.14538 36.4412 1.76611 36.806 1.76611 37.256C1.76611 37.706 2.14538 38.0709 2.61323 38.0709Z" fill="#26DBE7"/>
        <path d="M5.76923 37.973C6.23708 37.973 6.61635 37.6082 6.61635 37.1581C6.61635 36.7081 6.23708 36.3433 5.76923 36.3433C5.30138 36.3433 4.92212 36.7081 4.92212 37.1581C4.92212 37.6082 5.30138 37.973 5.76923 37.973Z" fill="#26DBE7"/>
        <path d="M8.95209 38.0709C9.41994 38.0709 9.79921 37.706 9.79921 37.256C9.79921 36.806 9.41994 36.4412 8.95209 36.4412C8.48425 36.4412 8.10498 36.806 8.10498 37.256C8.10498 37.706 8.48425 38.0709 8.95209 38.0709Z" fill="#26DBE7"/>
        <path d="M12.1081 37.973C12.5759 37.973 12.9552 37.6082 12.9552 37.1581C12.9552 36.7081 12.5759 36.3433 12.1081 36.3433C11.6403 36.3433 11.261 36.7081 11.261 37.1581C11.261 37.6082 11.6403 37.973 12.1081 37.973Z" fill="#26DBE7"/>
        <path d="M15.2919 38.0709C15.7598 38.0709 16.1391 37.706 16.1391 37.256C16.1391 36.806 15.7598 36.4412 15.2919 36.4412C14.8241 36.4412 14.4448 36.806 14.4448 37.256C14.4448 37.706 14.8241 38.0709 15.2919 38.0709Z" fill="#26DBE7"/>
        <path d="M18.5478 38.0709C19.0156 38.0709 19.3949 37.706 19.3949 37.256C19.3949 36.806 19.0156 36.4412 18.5478 36.4412C18.0799 36.4412 17.7007 36.806 17.7007 37.256C17.7007 37.706 18.0799 38.0709 18.5478 38.0709Z" fill="#26DBE7"/>
        <path d="M21.6887 38.0219C22.1565 38.0219 22.5358 37.6571 22.5358 37.2071C22.5358 36.7571 22.1565 36.3923 21.6887 36.3923C21.2208 36.3923 20.8416 36.7571 20.8416 37.2071C20.8416 37.6571 21.2208 38.0219 21.6887 38.0219Z" fill="#26DBE7"/>
        <path d="M24.8715 38.1198C25.3394 38.1198 25.7186 37.755 25.7186 37.305C25.7186 36.8549 25.3394 36.4901 24.8715 36.4901C24.4037 36.4901 24.0244 36.8549 24.0244 37.305C24.0244 37.755 24.4037 38.1198 24.8715 38.1198Z" fill="#26DBE7"/>
        <path d="M28.0275 38.0219C28.4954 38.0219 28.8746 37.6571 28.8746 37.2071C28.8746 36.7571 28.4954 36.3923 28.0275 36.3923C27.5597 36.3923 27.1804 36.7571 27.1804 37.2071C27.1804 37.6571 27.5597 38.0219 28.0275 38.0219Z" fill="#26DBE7"/>
        <path d="M31.2104 38.1198C31.6782 38.1198 32.0575 37.755 32.0575 37.305C32.0575 36.8549 31.6782 36.4901 31.2104 36.4901C30.7425 36.4901 30.3633 36.8549 30.3633 37.305C30.3633 37.755 30.7425 38.1198 31.2104 38.1198Z" fill="#26DBE7"/>
        <path d="M34.4672 38.1198C34.9351 38.1198 35.3143 37.755 35.3143 37.305C35.3143 36.8549 34.9351 36.4901 34.4672 36.4901C33.9994 36.4901 33.6201 36.8549 33.6201 37.305C33.6201 37.755 33.9994 38.1198 34.4672 38.1198Z" fill="#26DBE7"/>
        <path d="M37.5114 38.0709C37.9793 38.0709 38.3585 37.706 38.3585 37.256C38.3585 36.806 37.9793 36.4412 37.5114 36.4412C37.0436 36.4412 36.6643 36.806 36.6643 37.256C36.6643 37.706 37.0436 38.0709 37.5114 38.0709Z" fill="#26DBE7"/>
        <path d="M40.6955 38.1687C41.1633 38.1687 41.5426 37.8039 41.5426 37.3539C41.5426 36.9039 41.1633 36.5391 40.6955 36.5391C40.2277 36.5391 39.8484 36.9039 39.8484 37.3539C39.8484 37.8039 40.2277 38.1687 40.6955 38.1687Z" fill="#26DBE7"/>
        <path d="M43.8503 38.0709C44.3181 38.0709 44.6974 37.706 44.6974 37.256C44.6974 36.806 44.3181 36.4412 43.8503 36.4412C43.3824 36.4412 43.0032 36.806 43.0032 37.256C43.0032 37.706 43.3824 38.0709 43.8503 38.0709Z" fill="#26DBE7"/>
        <path d="M47.0344 38.1687C47.5022 38.1687 47.8815 37.8039 47.8815 37.3539C47.8815 36.9039 47.5022 36.5391 47.0344 36.5391C46.5665 36.5391 46.1873 36.9039 46.1873 37.3539C46.1873 37.8039 46.5665 38.1687 47.0344 38.1687Z" fill="#26DBE7"/>
        <path d="M50.29 38.1687C50.7578 38.1687 51.1371 37.8039 51.1371 37.3539C51.1371 36.9039 50.7578 36.5391 50.29 36.5391C49.8221 36.5391 49.4429 36.9039 49.4429 37.3539C49.4429 37.8039 49.8221 38.1687 50.29 38.1687Z" fill="#26DBE7"/>
    </g>
    <defs>
        <clipPath id="clip0">
            <rect width="53" height="42" fill="white"/>
        </clipPath>
    </defs>
</svg>
